{
  "name": "taxi",
  "translations": {
    "zh_to_ja": {
      "您好，請問我在哪裡可以叫計程車呢？": "すみません、タクシーはどこで呼べますか？",
      "您好！您可以往右前方直走，當您到達出口後，就會看到計程車招呼站，隨時都有計程車在那裡等候。": "こんにちは！右前方をまっすぐ進んでいただくと、出口に到着後、タクシー乗り場が見えます。タクシーが常時待機しております。",
      "了解了，謝謝您！我稍後就過去。": "分かりました、ありがとうございます！では、これから向かいます。",
      "我想知道，計程車通常需要等多久呢？": "タクシーは通常どのくらい待つ必要がありますか？",
      "一般來說，在招呼站等的話，通常不會等太久，通常在五分鐘內就能搭上車。如果您有急事，也可以考慮使用叫車應用程式，這樣會更方便快捷。": "通常、乗り場でお待ちいただく場合は、それほど長くお待ちいただく必要はありません。だいたい5分以内には乗車できます。もしお急ぎでしたら、配車アプリのご利用もご検討いただけます。そちらの方が便利で早いかと思います。",
      "好的，謝謝您提供的資訊！": "はい、情報ありがとうございます！",
      "不客氣！如果還有其他問題，隨時都可以來詢問我們喔！": "どういたしまして！他にご質問がございましたら、いつでもお申し付けください！",
      "您好！計程車招呼站就在東三門外面，您只需走到門口，右手邊就能看到招呼站。": "はい、タクシー乗り場は東三門の外にございます。出口まで行っていただくと、右手に乗り場が見えます。",
      "好的，謝謝您！那大約需要等多久呢？": "ありがとうございます！だいたいどのくらい待つ必要がありますか？",
      "通常在那裡等幾分鐘就會有計程車過來。如果您急著要走，也可以考慮使用手機叫車的應用程式，會更快。": "通常数分程度でタクシーが来ます。お急ぎの場合は、スマートフォンの配車アプリをご利用いただくと、より早くご利用いただけます。",
      "謝謝您的建議，我會試試的！": "アドバイスありがとうございます！試してみます！",
      "不客氣！如果還有其他需要幫忙的，隨時可以來詢問我們喔。": "どういたしまして！他にお困りのことがございましたら、いつでもお申し付けください。"
    },
    "ja_to_zh": {
      "すみません、タクシーはどこで呼べますか？": "您好，請問我在哪裡可以叫計程車呢？",
      "こんにちは！右前方をまっすぐ進んでいただくと、出口に到着後、タクシー乗り場が見えます。タクシーが常時待機しております。": "您好！您可以往右前方直走，當您到達出口後，就會看到計程車招呼站，隨時都有計程車在那裡等候。",
      "分かりました、ありがとうございます！では、これから向かいます。": "了解了，謝謝您！我稍後就過去。",
      "タクシーは通常どのくらい待つ必要がありますか？": "我想知道，計程車通常需要等多久呢？",
      "通常、乗り場でお待ちいただく場合は、それほど長くお待ちいただく必要はありません。だいたい5分以内には乗車できます。もしお急ぎでしたら、配車アプリのご利用もご検討いただけます。そちらの方が便利で早いかと思います。": "一般來說，在招呼站等的話，通常不會等太久，通常在五分鐘內就能搭上車。如果您有急事，也可以考慮使用叫車應用程式，這樣會更方便快捷。",
      "はい、情報ありがとうございます！": "好的，謝謝您提供的資訊！",
      "どういたしまして！他にご質問がございましたら、いつでもお申し付けください！": "不客氣！如果還有其他問題，隨時都可以來詢問我們喔！",
      "はい、タクシー乗り場は東三門の外にございます。出口まで行っていただくと、右手に乗り場が見えます。": "您好！計程車招呼站就在東三門外面，您只需走到門口，右手邊就能看到招呼站。",
      "ありがとうございます！だいたいどのくらい待つ必要がありますか？": "好的，謝謝您！那大約需要等多久呢？",
      "通常数分程度でタクシーが来ます。お急ぎの場合は、スマートフォンの配車アプリをご利用いただくと、より早くご利用いただけます。": "通常在那裡等幾分鐘就會有計程車過來。如果您急著要走，也可以考慮使用手機叫車的應用程式，會更快。",
      "アドバイスありがとうございます！試してみます！": "謝謝您的建議，我會試試的！",
      "どういたしまして！他にお困りのことがございましたら、いつでもお申し付けください。": "不客氣！如果還有其他需要幫忙的，隨時可以來詢問我們喔。"
    }
  }
}